<svg width="20" height="19" viewBox="0 0 20 19" fill="none" xmlns="http://www.w3.org/2000/svg">
<path d="M8.24023 10.0547H11.7559V11.168H8.24023V10.0547Z" fill="#050038"/>
<path d="M16.2257 11.1703H12.9297V11.727C12.9297 12.0346 12.6675 12.2836 12.3438 12.2836H7.65625C7.33246 12.2836 7.07031 12.0346 7.07031 11.727V11.1703H3.77426C3.01666 11.1703 2.34665 10.7115 2.10678 10.0288L0 4.02344V16.1801C0 17.1009 0.788574 17.85 1.75781 17.85H18.2422C19.2114 17.85 20 17.1009 20 16.1801V4.02387L17.8931 10.0288C17.6534 10.7115 16.9833 11.1703 16.2257 11.1703Z" fill="#050038"/>
<path d="M12.3434 1.14844H7.65591C6.68668 1.14844 5.8981 1.89758 5.8981 2.81836V3.375H1.00781L3.21774 9.67417C3.29785 9.9019 3.52155 10.0547 3.77393 10.0547H7.06998V9.49805C7.06998 9.19044 7.33212 8.94141 7.65591 8.94141H12.3434C12.6672 8.94141 12.9294 9.19044 12.9294 9.49805V10.0547H16.2254C16.4778 10.0547 16.7015 9.9019 16.7816 9.67417L18.9917 3.375H14.1012V2.81836C14.1012 1.89758 13.3127 1.14844 12.3434 1.14844ZM7.06998 3.375V2.81836C7.06998 2.51119 7.33258 2.26172 7.65591 2.26172H12.3434C12.6667 2.26172 12.9294 2.51119 12.9294 2.81836V3.375H7.06998Z" fill="#050038"/>
</svg>
