<svg width="21" height="15" viewBox="0 0 21 15" fill="none" xmlns="http://www.w3.org/2000/svg">
<line y1="2.6" x2="21" y2="2.6" stroke="#050038" stroke-width="0.8"/>
<line y1="12.6" x2="21" y2="12.6" stroke="#050038" stroke-width="0.8"/>
<line y1="7.6" x2="21" y2="7.6" stroke="#050038" stroke-width="0.8"/>
<circle cx="6.35" cy="2.35" r="2.05" fill="white" stroke="#050038" stroke-width="0.6"/>
<circle cx="6.35" cy="12.35" r="2.05" fill="white" stroke="#050038" stroke-width="0.6"/>
<circle cx="14.35" cy="7.35" r="2.05" fill="white" stroke="#050038" stroke-width="0.6"/>
</svg>
