<svg width="20" height="16" viewBox="0 0 20 16" fill="none" xmlns="http://www.w3.org/2000/svg">
<path d="M20 1.90164C19.2667 2.22951 18.4667 2.42623 17.6667 2.55738C18.5333 2.03279 19.1334 1.2459 19.4667 0.327869C18.6667 0.786885 17.8 1.11475 16.8667 1.31148C16.0667 0.459016 15 0 13.8667 0C11.6 0 9.73335 1.83607 9.73335 4.06557C9.73335 4.39344 9.80002 4.72131 9.86668 4.98361C6.46668 4.78689 3.40002 3.21311 1.40002 0.721312C1.06668 1.31148 0.866683 2.03279 0.866683 2.7541C0.866683 4.13115 1.60002 5.37705 2.66668 6.09836C2.00002 6.09836 1.33335 5.90164 0.800016 5.63934V5.70492C0.800016 7.67213 2.20002 9.31147 4.06668 9.63934C3.73335 9.70492 3.33335 9.77049 3.00002 9.77049C2.73335 9.77049 2.46668 9.77049 2.20002 9.70492C2.73335 11.2787 4.26668 12.459 6.00002 12.5246C4.60002 13.6393 2.80002 14.2295 0.93335 14.2295C0.600016 14.2295 0.266683 14.2295 -0.0666504 14.1639C1.73335 15.2787 3.93335 16 6.20002 16C13.7334 16 17.8667 9.83607 17.8667 4.52459C17.8667 4.32787 17.8667 4.19672 17.8667 4C18.7334 3.40984 19.4667 2.68852 20 1.90164Z" fill="#4B98F1"/>
</svg>
